RepRapFirmware height map file v2 generated at 2023-06-26 14:28, min error -0.225, max error 0.170, mean -0.067, deviation 0.123
axis0,axis1,min0,max0,min1,max1,radius,spacing0,spacing1,num0,num1
X,Y,25.00,225.00,15.00,200.00,-1.00,66.00,61.00,4,4
  0.055,  0.055, -0.145, -0.130
  0.085, -0.100, -0.180, -0.225
  0.100, -0.075, -0.200, -0.210
  0.170,  0.015, -0.135, -0.155
